#
## Alias OBJ Material File
# Exported from SketchUp, (c) 2000-2012 Trimble Navigation Limited

newmtl Google_Earth_Snapshot3
Ka 0.000000 0.000000 0.000000
Kd 0.458824 0.458824 0.458824
Ks 0.330000 0.330000 0.330000
map_Kd monumento_heroes/Google_Earth_Snapshot3.jpg

newmtl _1
Ka 0.000000 0.000000 0.000000
Kd 0.800000 0.800000 0.800000
Ks 0.330000 0.330000 0.330000
map_Kd monumento_heroes/_1.jpg

newmtl _3
Ka 0.000000 0.000000 0.000000
Kd 0.494118 0.470588 0.411765
Ks 0.330000 0.330000 0.330000

newmtl _2_3
Ka 0.000000 0.000000 0.000000
Kd 0.800000 0.800000 0.800000
Ks 0.330000 0.330000 0.330000
map_Kd monumento_heroes/_2_3.jpg

newmtl _5
Ka 0.000000 0.000000 0.000000
Kd 0.800000 0.800000 0.800000
Ks 0.330000 0.330000 0.330000

newmtl _2_1
Ka 0.000000 0.000000 0.000000
Kd 0.698039 0.698039 0.698039
Ks 0.330000 0.330000 0.330000
map_Kd monumento_heroes/_2_1.jpg

newmtl _2_1_1_
Ka 0.000000 0.000000 0.000000
Kd 0.698039 0.698039 0.698039
Ks 0.330000 0.330000 0.330000
map_Kd monumento_heroes/_2_1_1_.jpg

newmtl _2_1_2_
Ka 0.000000 0.000000 0.000000
Kd 0.698039 0.698039 0.698039
Ks 0.330000 0.330000 0.330000
map_Kd monumento_heroes/_2_1_2_.jpg

newmtl _2_1_3_
Ka 0.000000 0.000000 0.000000
Kd 0.698039 0.698039 0.698039
Ks 0.330000 0.330000 0.330000
map_Kd monumento_heroes/_2_1_3_.jpg

newmtl _2_1_4_
Ka 0.000000 0.000000 0.000000
Kd 0.698039 0.698039 0.698039
Ks 0.330000 0.330000 0.330000
map_Kd monumento_heroes/_2_1_4_.jpg

newmtl _2_1_5_
Ka 0.000000 0.000000 0.000000
Kd 0.698039 0.698039 0.698039
Ks 0.330000 0.330000 0.330000
map_Kd monumento_heroes/_2_1_5_.jpg

newmtl _2_1_6_
Ka 0.000000 0.000000 0.000000
Kd 0.698039 0.698039 0.698039
Ks 0.330000 0.330000 0.330000
map_Kd monumento_heroes/_2_1_6_.jpg

newmtl _2_1_7_
Ka 0.000000 0.000000 0.000000
Kd 0.698039 0.698039 0.698039
Ks 0.330000 0.330000 0.330000
map_Kd monumento_heroes/_2_1_7_.jpg

newmtl _2_2
Ka 0.000000 0.000000 0.000000
Kd 0.800000 0.800000 0.800000
Ks 0.330000 0.330000 0.330000
map_Kd monumento_heroes/_2_2.jpg

newmtl _2_1_8_
Ka 0.000000 0.000000 0.000000
Kd 0.698039 0.698039 0.698039
Ks 0.330000 0.330000 0.330000
map_Kd monumento_heroes/_2_1_8_.jpg

newmtl _2_1_9_
Ka 0.000000 0.000000 0.000000
Kd 0.698039 0.698039 0.698039
Ks 0.330000 0.330000 0.330000
map_Kd monumento_heroes/_2_1_9_.jpg

newmtl _2_1_10_
Ka 0.000000 0.000000 0.000000
Kd 0.698039 0.698039 0.698039
Ks 0.330000 0.330000 0.330000
map_Kd monumento_heroes/_2_1_10_.jpg

newmtl _2_1_11_
Ka 0.000000 0.000000 0.000000
Kd 0.698039 0.698039 0.698039
Ks 0.330000 0.330000 0.330000
map_Kd monumento_heroes/_2_1_11_.jpg

newmtl _2_2_1_
Ka 0.000000 0.000000 0.000000
Kd 0.800000 0.800000 0.800000
Ks 0.330000 0.330000 0.330000
map_Kd monumento_heroes/_2_2_1_.jpg

newmtl _2_2_2_
Ka 0.000000 0.000000 0.000000
Kd 0.800000 0.800000 0.800000
Ks 0.330000 0.330000 0.330000
map_Kd monumento_heroes/_2_2_2_.jpg

newmtl _2_2_3_
Ka 0.000000 0.000000 0.000000
Kd 0.800000 0.800000 0.800000
Ks 0.330000 0.330000 0.330000
map_Kd monumento_heroes/_2_2_3_.jpg

newmtl _2_1_12_
Ka 0.000000 0.000000 0.000000
Kd 0.698039 0.698039 0.698039
Ks 0.330000 0.330000 0.330000
map_Kd monumento_heroes/_2_1_12_.jpg

newmtl _2_1_13_
Ka 0.000000 0.000000 0.000000
Kd 0.698039 0.698039 0.698039
Ks 0.330000 0.330000 0.330000
map_Kd monumento_heroes/_2_1_13_.jpg

newmtl _2_1_14_
Ka 0.000000 0.000000 0.000000
Kd 0.698039 0.698039 0.698039
Ks 0.330000 0.330000 0.330000
map_Kd monumento_heroes/_2_1_14_.jpg

newmtl _2_1_15_
Ka 0.000000 0.000000 0.000000
Kd 0.698039 0.698039 0.698039
Ks 0.330000 0.330000 0.330000
map_Kd monumento_heroes/_2_1_15_.jpg

newmtl _2_1_16_
Ka 0.000000 0.000000 0.000000
Kd 0.698039 0.698039 0.698039
Ks 0.330000 0.330000 0.330000
map_Kd monumento_heroes/_2_1_16_.jpg

newmtl _2_1_17_
Ka 0.000000 0.000000 0.000000
Kd 0.698039 0.698039 0.698039
Ks 0.330000 0.330000 0.330000
map_Kd monumento_heroes/_2_1_17_.jpg

newmtl _2_1_18_
Ka 0.000000 0.000000 0.000000
Kd 0.698039 0.698039 0.698039
Ks 0.330000 0.330000 0.330000
map_Kd monumento_heroes/_2_1_18_.jpg

newmtl _2_1_19_
Ka 0.000000 0.000000 0.000000
Kd 0.698039 0.698039 0.698039
Ks 0.330000 0.330000 0.330000
map_Kd monumento_heroes/_2_1_19_.jpg

newmtl _2_1_20_
Ka 0.000000 0.000000 0.000000
Kd 0.698039 0.698039 0.698039
Ks 0.330000 0.330000 0.330000
map_Kd monumento_heroes/_2_1_20_.jpg

newmtl _2_1_21_
Ka 0.000000 0.000000 0.000000
Kd 0.698039 0.698039 0.698039
Ks 0.330000 0.330000 0.330000
map_Kd monumento_heroes/_2_1_21_.jpg

newmtl _2_1_22_
Ka 0.000000 0.000000 0.000000
Kd 0.698039 0.698039 0.698039
Ks 0.330000 0.330000 0.330000
map_Kd monumento_heroes/_2_1_22_.jpg

newmtl _2_1_23_
Ka 0.000000 0.000000 0.000000
Kd 0.698039 0.698039 0.698039
Ks 0.330000 0.330000 0.330000
map_Kd monumento_heroes/_2_1_23_.jpg

newmtl _2_1_24_
Ka 0.000000 0.000000 0.000000
Kd 0.698039 0.698039 0.698039
Ks 0.330000 0.330000 0.330000
map_Kd monumento_heroes/_2_1_24_.jpg

newmtl _2_1_25_
Ka 0.000000 0.000000 0.000000
Kd 0.698039 0.698039 0.698039
Ks 0.330000 0.330000 0.330000
map_Kd monumento_heroes/_2_1_25_.jpg

newmtl _2_1_26_
Ka 0.000000 0.000000 0.000000
Kd 0.698039 0.698039 0.698039
Ks 0.330000 0.330000 0.330000
map_Kd monumento_heroes/_2_1_26_.jpg

newmtl _2_1_27_
Ka 0.000000 0.000000 0.000000
Kd 0.698039 0.698039 0.698039
Ks 0.330000 0.330000 0.330000
map_Kd monumento_heroes/_2_1_27_.jpg

newmtl _2_1_28_
Ka 0.000000 0.000000 0.000000
Kd 0.698039 0.698039 0.698039
Ks 0.330000 0.330000 0.330000
map_Kd monumento_heroes/_2_1_28_.jpg

newmtl _2_1_29_
Ka 0.000000 0.000000 0.000000
Kd 0.698039 0.698039 0.698039
Ks 0.330000 0.330000 0.330000
map_Kd monumento_heroes/_2_1_29_.jpg

newmtl _2_1_30_
Ka 0.000000 0.000000 0.000000
Kd 0.698039 0.698039 0.698039
Ks 0.330000 0.330000 0.330000
map_Kd monumento_heroes/_2_1_30_.jpg

newmtl _2_1_31_
Ka 0.000000 0.000000 0.000000
Kd 0.698039 0.698039 0.698039
Ks 0.330000 0.330000 0.330000
map_Kd monumento_heroes/_2_1_31_.jpg

newmtl _2_1_32_
Ka 0.000000 0.000000 0.000000
Kd 0.698039 0.698039 0.698039
Ks 0.330000 0.330000 0.330000
map_Kd monumento_heroes/_2_1_32_.jpg

newmtl _2_1_33_
Ka 0.000000 0.000000 0.000000
Kd 0.698039 0.698039 0.698039
Ks 0.330000 0.330000 0.330000
map_Kd monumento_heroes/_2_1_33_.jpg

newmtl _2_1_34_
Ka 0.000000 0.000000 0.000000
Kd 0.698039 0.698039 0.698039
Ks 0.330000 0.330000 0.330000
map_Kd monumento_heroes/_2_1_34_.jpg

newmtl _2_1_35_
Ka 0.000000 0.000000 0.000000
Kd 0.698039 0.698039 0.698039
Ks 0.330000 0.330000 0.330000
map_Kd monumento_heroes/_2_1_35_.jpg

newmtl _2_1_36_
Ka 0.000000 0.000000 0.000000
Kd 0.698039 0.698039 0.698039
Ks 0.330000 0.330000 0.330000
map_Kd monumento_heroes/_2_1_36_.jpg

newmtl _2_1_37_
Ka 0.000000 0.000000 0.000000
Kd 0.698039 0.698039 0.698039
Ks 0.330000 0.330000 0.330000
map_Kd monumento_heroes/_2_1_37_.jpg

newmtl _2_1_38_
Ka 0.000000 0.000000 0.000000
Kd 0.698039 0.698039 0.698039
Ks 0.330000 0.330000 0.330000
map_Kd monumento_heroes/_2_1_38_.jpg

newmtl _2_1_39_
Ka 0.000000 0.000000 0.000000
Kd 0.698039 0.698039 0.698039
Ks 0.330000 0.330000 0.330000
map_Kd monumento_heroes/_2_1_39_.jpg

newmtl _2_1_40_
Ka 0.000000 0.000000 0.000000
Kd 0.698039 0.698039 0.698039
Ks 0.330000 0.330000 0.330000
map_Kd monumento_heroes/_2_1_40_.jpg

newmtl _2_1_41_
Ka 0.000000 0.000000 0.000000
Kd 0.698039 0.698039 0.698039
Ks 0.330000 0.330000 0.330000
map_Kd monumento_heroes/_2_1_41_.jpg

newmtl _2_1_42_
Ka 0.000000 0.000000 0.000000
Kd 0.698039 0.698039 0.698039
Ks 0.330000 0.330000 0.330000
map_Kd monumento_heroes/_2_1_42_.jpg

newmtl _2_1_43_
Ka 0.000000 0.000000 0.000000
Kd 0.698039 0.698039 0.698039
Ks 0.330000 0.330000 0.330000
map_Kd monumento_heroes/_2_1_43_.jpg

newmtl _2
Ka 0.000000 0.000000 0.000000
Kd 0.800000 0.800000 0.800000
Ks 0.330000 0.330000 0.330000
map_Kd monumento_heroes/_2.jpg

newmtl _2_2_4_
Ka 0.000000 0.000000 0.000000
Kd 0.800000 0.800000 0.800000
Ks 0.330000 0.330000 0.330000
map_Kd monumento_heroes/_2_2_4_.jpg

newmtl _6
Ka 0.000000 0.000000 0.000000
Kd 0.356863 0.188235 0.019608
Ks 0.330000 0.330000 0.330000

